{
    "target" : "RobotAgent.bin",
    "platform" : "X86_64",
    "compiler" : "/usr/bin/g++",
    "buildPath" : "./build",
    "debugger" : "/usr/bin/gdb",
    "buildOptions" : ["-pipe","-g","-std=gnu++11","-W","-fPIC"],
    "sourcesPaths" : [
        "../SpecialK/LibSkFlat",
        "../SpecialK/LibSkCore",
        "../SpecialK/LibSkAudio",
        "../SpecialK/LibSkMultimedia",
        "../SpecialK/LibSkVision"
    ],

    "includeOptPaths" : [
        "-I/usr/include/opencv4",
        "-I/usr/include/eigen3"
    ],

    "dynamicDeps" : [],
    "defines" : [
        "-DENABLE_SKAPP",
        "-DSPECIALK_APPLICATION",
        "-DENABLE_SSL",
        "-DENABLE_XML",
        "-DENABLE_HTTP",
        "-DENABLE_AES",
        "-DENABLE_AUDIO",
        "-DENABLE_AUDIOENCLIBS",
        "-DENABLE_TEXT_TO_SPEECH",
        "-DENABLE_FFTW3LIB",
        "-DENABLE_CV"
    ],
    "libs" : [
        "-lpthread",
        "-lm",
        "-lz",
        "-lssl",
        "-lcrypto",
        "-lespeak-ng",
        "-lfftw3",
        "-logg",
        "-lvorbis",
        "-lvorbisenc",
        "-lopencv_core",
        "-lopencv_videoio",
        "-lopencv_imgproc",
        "-lopencv_imgcodecs",
        "-lopencv_xphoto",
        "-lopencv_face",
        "-lopencv_objdetect",
        "-lopencv_calib3d",
        "-lopencv_features2d"
    ]
}
