{
    "phoneme" : "b",
    "blendJawRange" : 5,
    "blendSyncRange" : 63,
    "blendTwistRange" : 54,
    "blendLipRange" : 41,
    "blendWidthRange" : 0,
    "blendExpressRange" : 50,
    "blendSymRange" : 0,
    "blendTongueRange" : 58,
    "valid" : true
}