{
    "phoneme" : "dʒ",
    "blendJawRange" : 9,
    "blendSyncRange" : 59,
    "blendTwistRange" : 48,
    "blendLipRange" : 31,
    "blendWidthRange" : 43,
    "blendExpressRange" : 50,
    "blendSymRange" : 0,
    "blendTongueRange" : 100,
    "valid" : true
}