{
    "phoneme" : "e",
    "blendJawRange" : 11,
    "blendSyncRange" : 43,
    "blendTwistRange" : 47,
    "blendLipRange" : 42,
    "blendWidthRange" : 13,
    "blendExpressRange" : 50,
    "blendSymRange" : 0,
    "blendTongueRange" : 54,
    "valid" : true
}