{
    "phoneme" : "eɪ",
    "blendJawRange" : 4,
    "blendSyncRange" : 63,
    "blendTwistRange" : 48,
    "blendLipRange" : 31,
    "blendWidthRange" : 42,
    "blendExpressRange" : 50,
    "blendSymRange" : 0,
    "blendTongueRange" : 60,
    "valid" : true
}