{
    "phoneme" : "iː",
    "blendJawRange" : 9,
    "blendSyncRange" : 75,
    "blendTwistRange" : 38,
    "blendLipRange" : 29,
    "blendWidthRange" : 49,
    "blendExpressRange" : 48,
    "blendSymRange" : 0,
    "blendTongueRange" : 47,
    "valid" : true
}