{
    "phoneme" : "i",
    "blendJawRange" : 5,
    "blendSyncRange" : 80,
    "blendTwistRange" : 52,
    "blendLipRange" : 24,
    "blendWidthRange" : 81,
    "blendExpressRange" : 48,
    "blendSymRange" : 0,
    "blendTongueRange" : 100,
    "valid" : true
}