{
    "phoneme" : "k",
    "blendJawRange" : 5,
    "blendSyncRange" : 77,
    "blendTwistRange" : 48,
    "blendLipRange" : 31,
    "blendWidthRange" : 48,
    "blendExpressRange" : 50,
    "blendSymRange" : 0,
    "blendTongueRange" : 45,
    "valid" : true
}