{
    "phoneme" : "l",
    "blendJawRange" : 11,
    "blendSyncRange" : 78,
    "blendTwistRange" : 50,
    "blendLipRange" : 35,
    "blendWidthRange" : 72,
    "blendExpressRange" : 50,
    "blendSymRange" : 0,
    "blendTongueRange" : 100,
    "valid" : true
}