{
    "phoneme" : "p",
    "blendJawRange" : 5,
    "blendSyncRange" : 58,
    "blendTwistRange" : 38,
    "blendLipRange" : 48,
    "blendWidthRange" : 0,
    "blendExpressRange" : 48,
    "blendSymRange" : 0,
    "blendTongueRange" : 47,
    "valid" : true
}