{
    "phoneme" : "s",
    "blendJawRange" : 2,
    "blendSyncRange" : 62,
    "blendTwistRange" : 38,
    "blendLipRange" : 46,
    "blendWidthRange" : 37,
    "blendExpressRange" : 48,
    "blendSymRange" : 0,
    "blendTongueRange" : 100,
    "valid" : true
}