{
    "phoneme" : "tʃ",
    "blendJawRange" : 5,
    "blendSyncRange" : 38,
    "blendTwistRange" : 50,
    "blendLipRange" : 85,
    "blendWidthRange" : 0,
    "blendExpressRange" : 50,
    "blendSymRange" : 0,
    "blendTongueRange" : 97,
    "valid" : true
}