{
    "phoneme" : "ŋ",
    "blendJawRange" : 9,
    "blendSyncRange" : 70,
    "blendTwistRange" : 50,
    "blendLipRange" : 22,
    "blendWidthRange" : 16,
    "blendExpressRange" : 50,
    "blendSymRange" : 0,
    "blendTongueRange" : 79,
    "valid" : true
}