{
    "phoneme" : "ɾ",
    "blendJawRange" : 8,
    "blendSyncRange" : 67,
    "blendTwistRange" : 50,
    "blendLipRange" : 50,
    "blendWidthRange" : 50,
    "blendExpressRange" : 50,
    "blendSymRange" : 0,
    "blendTongueRange" : 99,
    "valid" : true
}