{
    "phoneme" : "ʊ",
    "blendJawRange" : 6,
    "blendSyncRange" : 71,
    "blendTwistRange" : 50,
    "blendLipRange" : 42,
    "blendWidthRange" : 9,
    "blendExpressRange" : 50,
    "blendSymRange" : 0,
    "blendTongueRange" : 57,
    "valid" : true
}