{
    "phoneme" : "ʲ",
    "blendJawRange" : 9,
    "blendSyncRange" : 63,
    "blendTwistRange" : 48,
    "blendLipRange" : 17,
    "blendWidthRange" : 0,
    "blendExpressRange" : 63,
    "blendSymRange" : 0,
    "blendTongueRange" : 50,
    "valid" : true
}